GeoTox Introduction • GeoTox
…
set.seed(2357)

Hill curve fitting

Hill curve fitting is a key step in the GeoTox workflow, as it provides the parameters needed to link internal concentrations to assay responses. The fit_hill() function can be used to fit Hill models to dose-response data, and the resulting parameters can be added to a GeoTox object for use in subsequent calculations. Dose-reponse data can be grouped by assay and substance to fit separate Hill curves for each combination.

hill_params <- fit_hill(
  geo_tox_data$dose_response,
  assay = "endp",
  substance = c("casn", "chnm")
)
hill_params

$fit
# A tibble: 85 × 16
   endp    casn  chnm      tp   tp.sd logAC50 logAC50.sd slope slope.sd logc_min
   <chr>   <chr> <chr>  <dbl>   <dbl>   <dbl>      <dbl> <dbl>    <dbl>    <dbl>
 1 APR_He… 510-… Chlo…   4.44   5.86     2.06      0.448     1        0   -0.398
 2 APR_He… 92-8… 4,4?…   2.14   0.945    2.05      0.271     1        0   -0.398
 3 APR_He… 95-9… 2,4,…   1.46   0.556    1.67      0.246     1        0   -0.699
 4 APR_He… 510-… Chlo…   2.33   0.542    1.79      0.192     1        0   -0.398
 5 APR_He… 72-4… Meth…   1.93   1.93     1.95      1.95      1        0   -0.398
 6 APR_He… 92-8… 4,4?…   2.43   1.50     2.22      0.317     1        0   -0.398
 7 ATG_p5… 87-8… Pent…   2.15   0.877    1.57      0.321     1        0   -1.30
 8 TOX21_… 100-… 4-Ni… -63.4   94.6      2.18      0.784     1        0   -3
 9 TOX21_… 101-… 4,4'… -65.6  169.       2.45      1.04      1        0   -3
10 TOX21_… 119-… C.I.… -95.5   18.6      1.45      0.175     1        0   -3
# ℹ 75 more rows
# ℹ 6 more variables: logc_max <dbl>, resp_min <dbl>, resp_max <dbl>,
#   AIC <dbl>, tp.sd.imputed <lgl>, logAC50.sd.imputed <lgl>
…
