Fit 2- or 3-parameter Hill model — fit_hill • GeoTox
…
    Details

    Optional chem and assay identifiers can be used to fit multiple
chemicals and/or assays. Returned columns tp is the top asymptote and
logAC50 is the 50% response concentration. If the computation of the
standard deviations of these two parameters fails, then the standard
deviation is set equal to the parameter estimate and is indicated by the
respective imputed flag being TRUE.

    Examples

# Multiple assays, multiple chemicals
df <- geo_tox_data$dose_response
fit_hill(df, assay = "endp", chem = "casn")
#> # A tibble: 89 × 15
#>    assay  chem     tp  tp.sd logAC50 logAC50.sd slope slope.sd logc_min logc_max
#>    <chr>  <chr> <dbl>  <dbl>   <dbl>      <dbl> <dbl>    <dbl>    <dbl>    <dbl>
#>  1 APR_H… 510-…  4.44  5.86     2.06      0.448     1        0   -0.398     2.30
#>  2 APR_H… 92-8…  2.14  0.945    2.05      0.271     1        0   -0.398     2.30
#>  3 APR_H… 95-9…  1.46  0.556    1.67      0.246     1        0   -0.699     2   
#>  4 APR_H… 510-…  2.33  0.542    1.79      0.192     1        0   -0.398     2.30
#>  5 APR_H… 72-4…  1.93  1.93     1.95      1.95      1        0   -0.398     2.30
#>  6 APR_H… 92-8…  2.43  1.50     2.22      0.317     1        0   -0.398     2.30
#>  7 ATG_p… 87-8…  2.15  0.877    1.57      0.321     1        0   -1.30      2   
#>  8 TOX21… 100-… 71.4  27.2      1.54      0.294     1        0   -3         2   
#>  9 TOX21… 101-… 80.1  80.1      2.31      2.31      1        0   -3         1.95
#> 10 TOX21… 101-…  0     0        2.45      0.101     1        0   -3         1.95
#> # ℹ 79 more rows
#> # ℹ 5 more variables: resp_min <dbl>, resp_max <dbl>, AIC <dbl>,
#> #   tp.sd.imputed <lgl>, logAC50.sd.imputed <lgl>
…
