…
# Open a connection to GeoTox database
con <- get_con(GT)

# Look at column names in the 'concentration' table
dplyr::tbl(con, "concentration") |> dplyr::collect()
#> # A tibble: 400 × 5
#>       id sample_id substance_id route_id C_ext
#>    <dbl>     <int>        <int>    <int> <dbl>
#>  1     1         1            1        1 10.0 
#>  2     2         1            2        1 19.5 
#>  3     3         2            1        1 10.7 
#>  4     4         2            2        1 19.1 
#>  5     5         3            1        1  8.73
#>  6     6         3            2        1 18.5 
#>  7     7         4            1        1  9.84
#>  8     8         4            2        1 19.8 
#>  9     9         5            1        1  9.39
#> 10    10         5            2        1 21.6 
#> # ℹ 390 more rows
…
